International Trade Network Analysis (2012 - 2021)
…
Russian Federation
Russian Federation
686
343
343

hide

# Summarize by Group
trade.nodes%>%
  group_by(name)%>% 
  summarise_all(funs(mean, n())) %>% 
  arrange(desc(degree_mean))

# A tibble: 205 x 7
   name   degree_mean indegree_mean outdegree_mean degree_n indegree_n
   <chr>        <dbl>         <dbl>          <dbl>    <int>      <int>
 1 Germa~        3110          1614           1496        1          1
 2 China         2515          1763            714        1          1
 3 USA           2368           944           1424        1          1
 4 Japan         1469           996            473        1          1
 5 Chile          956           378            558        1          1
 6 Russi~         686           343            343        1          1
 7 India          228           117            111        1          1
 8 Rep. ~         221           125             96        1          1
 9 Canada         216            92            124        1          1
10 Unite~         212            97            115        1          1
# ... with 195 more rows, and 1 more variable: outdegree_n <int>
…
